<?xml version="1.0" encoding="utf-8"?>
<!-- Generator: Adobe Illustrator 21.0.2, SVG Export Plug-In . SVG Version: 6.00 Build 0)  -->
<svg version="1.1" id="Layer_1" xmlns="http://www.w3.org/2000/svg" xmlns:xlink="http://www.w3.org/1999/xlink" x="0px" y="0px"
	 viewBox="0 0 16.7 16" style="enable-background:new 0 0 16.7 16;" xml:space="preserve">
<style type="text/css">
	.st0{fill:#3D97D3;}
</style>
<g>
	<path class="st0" d="M6.3,8.6V7.9C6,7.6,5.6,7.3,5.3,7C4.4,7.9,3.5,8.5,3.4,8.5L3.3,8.6L2.8,7.8h0.1c0,0,0.9-0.6,1.8-1.5
		C3.9,5,3.5,3.8,3.5,3.7V3.6l0.9-0.2v0.1c0,0,0.3,1,0.9,2C6,4.7,6.4,4,6.5,3.2H2.6v-1h2.2V1.6h1v0.6H8v1.1H7.5c-0.1,1-0.6,2-1.5,3
		c0.1,0.1,0.2,0.3,0.4,0.4V6.2c0-0.3,0.3-0.6,0.6-0.6h2.8v-5c0-0.1-0.1-0.2-0.2-0.2H0.5c-0.1,0-0.2,0.1-0.2,0.2v9.1
		c0,0.1,0.1,0.2,0.2,0.2h5.8V8.6z"/>
	<path class="st0" d="M11.6,8.8L11.6,8.8c-0.1,0.3-0.2,0.8-0.3,1.1L11,11.1h1.3L11.9,10C11.8,9.6,11.7,9.2,11.6,8.8L11.6,8.8z"/>
	<path class="st0" d="M16.2,6H7.1C7,6,6.9,6.1,6.9,6.2v9.1c0,0.1,0.1,0.2,0.2,0.2h9.1c0.1,0,0.2-0.1,0.2-0.2V6.2
		C16.4,6.1,16.3,6,16.2,6L16.2,6z M12.9,13.7l-0.5-1.5h-1.7l-0.4,1.5H9l1.8-5.8h1.7l1.8,5.8H12.9z"/>
	<path class="st0" d="M4.5,10.2H3.2v2.1l1.1,1h2.4V12H4.5V10.2z"/>
</g>
</svg>
