<?xml version="1.0" encoding="utf-8"?>
<!-- Generator: Adobe Illustrator 21.0.2, SVG Export Plug-In . SVG Version: 6.00 Build 0)  -->
<svg version="1.1" id="Layer_1" xmlns="http://www.w3.org/2000/svg" xmlns:xlink="http://www.w3.org/1999/xlink" x="0px" y="0px"
	 viewBox="0 0 17 16.5" style="enable-background:new 0 0 17 16.5;" xml:space="preserve">
<style type="text/css">
	.st0{fill:#464646;stroke:#474747;stroke-width:0.15;stroke-miterlimit:10;}
</style>
<g>
	<path class="st0" d="M8.8,8.9C7.3,8.9,6,7.7,6,6.2c0-1.5,1.2-2.7,2.7-2.7c1.5,0,2.7,1.2,2.7,2.7C11.5,7.7,10.3,8.9,8.8,8.9L8.8,8.9
		z M8.8,3.9c-1.2,0-2.3,1-2.3,2.3c0,1.2,1,2.3,2.3,2.3c1.2,0,2.3-1,2.3-2.3C11,4.9,10,3.9,8.8,3.9L8.8,3.9z M8.8,3.9"/>
	<path class="st0" d="M8.8,16.3c-0.1,0-0.1,0-0.2-0.1c-0.2-0.3-5.7-6.9-5.7-10c0-3.2,2.6-5.9,5.9-5.9c3.2,0,5.9,2.6,5.9,5.9
		c0,3.2-5.5,9.7-5.7,10C8.9,16.3,8.9,16.3,8.8,16.3L8.8,16.3z M8.8,0.8c-3,0-5.4,2.4-5.4,5.4c0,2.7,4.4,8.3,5.4,9.5
		c1-1.2,5.4-6.8,5.4-9.5C14.2,3.2,11.8,0.8,8.8,0.8L8.8,0.8z M8.8,0.8"/>
</g>
</svg>
