<?xml version="1.0" encoding="utf-8"?>
<!-- Generator: Adobe Illustrator 21.0.2, SVG Export Plug-In . SVG Version: 6.00 Build 0)  -->
<svg version="1.1" id="Layer_1" xmlns="http://www.w3.org/2000/svg" xmlns:xlink="http://www.w3.org/1999/xlink" x="0px" y="0px"
	 viewBox="0 0 13 13" style="enable-background:new 0 0 13 13;" xml:space="preserve">
<style type="text/css">
	.st0{fill-rule:evenodd;clip-rule:evenodd;fill:#4D4B4A;}
</style>
<image style="display:none;overflow:visible;" width="64" height="86" xlink:href="../../../../Desktop/Screen Shot 2017-06-15 at 6.01.11 PM.png"  transform="matrix(0.5 0 0 0.5 -9.5 -6.2615)">
</image>
<g>
	<g>
		<path class="st0" d="M13,5.8c0-0.2-0.2-0.3-0.4-0.3c-0.6,0-1.1-0.3-1.3-0.9C11,4,11.1,3.4,11.6,3c0.1-0.1,0.2-0.3,0-0.5
			c-0.3-0.4-0.7-0.7-1-1c-0.1-0.1-0.4-0.1-0.5,0C9.7,1.9,9,2.1,8.5,1.8C7.9,1.6,7.5,1,7.6,0.4c0-0.2-0.1-0.4-0.3-0.4
			C6.8,0,6.3,0,5.8,0c-0.2,0-0.3,0.2-0.3,0.4c0,0.6-0.3,1.2-0.9,1.4C4.1,2,3.4,1.9,3,1.4c-0.1-0.1-0.3-0.2-0.5,0
			C2.1,1.7,1.7,2,1.4,2.4c-0.1,0.1-0.1,0.4,0,0.5C1.9,3.3,2.1,4,1.8,4.5C1.6,5.1,1.1,5.4,0.4,5.4C0.2,5.4,0.1,5.6,0,5.7
			C0,6.2,0,6.7,0,7.2c0,0.2,0.2,0.3,0.4,0.3c0.6,0,1.1,0.3,1.3,0.9C2,9,1.9,9.6,1.4,10c-0.1,0.1-0.2,0.3,0,0.5c0.3,0.4,0.6,0.7,1,1
			c0.1,0.1,0.4,0.1,0.5,0c0.4-0.4,1.1-0.6,1.6-0.4c0.6,0.2,0.9,0.8,0.9,1.4c0,0.2,0.1,0.4,0.3,0.4c0.2,0,0.5,0,0.7,0
			c0.2,0,0.5,0,0.7,0c0.2,0,0.3-0.2,0.3-0.4c0-0.6,0.3-1.2,0.9-1.4C9,11,9.6,11.1,10,11.6c0.1,0.1,0.3,0.2,0.5,0
			c0.4-0.3,0.7-0.7,1.1-1c0.1-0.1,0.1-0.4,0-0.5c-0.5-0.4-0.6-1.1-0.4-1.6c0.2-0.5,0.8-0.9,1.3-0.9l0.1,0c0.2,0,0.4-0.1,0.4-0.3
			C13,6.8,13,6.3,13,5.8L13,5.8z M6.5,8.7c-1.2,0-2.2-1-2.2-2.2c0-1.2,1-2.2,2.2-2.2c1.2,0,2.2,1,2.2,2.2C8.7,7.7,7.7,8.7,6.5,8.7
			L6.5,8.7z M6.5,8.7"/>
	</g>
</g>
</svg>
